[
  {
    "model": "lara_django_material.partdeviceclass",
    "fields": {
      "name": "Spectrometer - UV-vis",
      "description": "UV-vis Spectrometer Subclass"
    }
  },
  {
    "model": "lara_django_material.partdeviceclass",
    "fields": {
      "name": "Digital Thermometer",
      "description": ""
    }
  },
  {
    "model": "lara_django_material.partdeviceclass",
    "fields": {
      "name": "Thermometer",
      "description": ""
    }
  },
  {
    "model": "lara_django_material.partdeviceclass",
    "fields": {
      "name": "Spectrometer",
      "description": "Generic Spectrometer Class"
    }
  },
  {
    "model": "lara_django_material.partdeviceclass",
    "fields": {
      "name": "Spectrometer - FTIR",
      "description": "FTIR Spectrometer Subclass"
    }
  },
  {
    "model": "lara_django_material.partdeviceclass",
    "fields": {
      "name": "Spectrometer - Raman",
      "description": "Raman Spectrometer Subclass"
    }
  },
  {
    "model": "lara_django_material.partdeviceclass",
    "fields": {
      "name": "Spectrometer - X-ray",
      "description": "X-ray Spectrometer Subclass"
    }
  },
  {
    "model": "lara_django_material.partdeviceclass",
    "fields": {
      "name": "Spectrometer - NMR",
      "description": "NMR Spectrometer Subclass"
    }
  },
  {
    "model": "lara_django_material.partdeviceclass",
    "fields": {
      "name": "Spectrometer - Mass",
      "description": "Mass Spectrometer Subclass"
    }
  },
  {
    "model": "lara_django_material.partdeviceclass",
    "fields": {
      "name": "Spectrometer - EPR",
      "description": "EPR Spectrometer Subclass"
    }
  },
  {
    "model": "lara_django_material.partdeviceclass",
    "fields": {
      "name": "Spectrometer - Fluorescence",
      "description": "Fluorescence Spectrometer Subclass"
    }
  },
  {
    "model": "lara_django_material.partdeviceclass",
    "fields": {
      "name": "Spectrometer - UV-vis-NIR",
      "description": "UV-vis-NIR Spectrometer Subclass"
    }
  },
  {
    "model": "lara_django_material.partdeviceclass",
    "fields": {
      "name": "Spectrometer - UV-vis-IR",
      "description": "UV-vis-IR Spectrometer Subclass"
    }
  },
  {
    "model": "lara_django_material.partdeviceclass",
    "fields": {
      "name": "Spectrometer - UV-vis-IR-NIR",
      "description": "UV-vis-IR-NIR Spect Subclass"
    }
  },
  {
    "model": "lara_django_material.partdeviceclass",
    "fields": {
      "name": "HPLC",
      "description": "High Performance Liquid Chromatography"
    }
  },
  {
    "model": "lara_django_material.partdeviceclass",
    "fields": {
      "name": "GC",
      "description": "Gas Chromatography"
    }
  },
  {
    "model": "lara_django_material.partdeviceclass",
    "fields": {
      "name": "GC-MS",
      "description": "Gas Chromatography - Mass Spectrometry"
    }
  },
  {
    "model": "lara_django_material.partdeviceclass",
    "fields": {
      "name": "LC-MS",
      "description": "Liquid Chromatography - Mass Spectrometry"
    }
  },
  {
    "model": "lara_django_material.partdeviceclass",
    "fields": {
      "name": "ICP-MS",
      "description": "Inductively Coupled Plasma - Mass Spectrometry"
    }
  },
  {
    "model": "lara_django_material.partdeviceclass",
    "fields": {
      "name": "ICP-OES",
      "description": "Inductively Coupled Plasma - Optical Emission Spectrometry"
    }
  },
  {
    "model": "lara_django_material.partdeviceclass",
    "fields": {
      "name": "XRD",
      "description": "X-ray Diffraction"
    }
  },
  {
    "model": "lara_django_material.partdeviceclass",
    "fields": {
      "name": "XRF",
      "description": "X-ray Fluorescence"
    }
  },
  {
    "model": "lara_django_material.partdeviceclass",
    "fields": {
      "name": "SEM",
      "description": "Scanning Electron Microscopy"
    }
  },
  {
    "model": "lara_django_material.partdeviceclass",
    "fields": {
      "name": "TEM",
      "description": "Transmission Electron Microscopy"
    }
  },
  {
    "model": "lara_django_material.partdeviceclass",
    "fields": {
      "name": "AFM",
      "description": "Atomic Force Microscopy"
    }
  },
  {
    "model": "lara_django_material.partdeviceclass",
    "fields": {
      "name": "STM",
      "description": "Scanning Tunneling Microscopy"
    }
  },
  {
    "model": "lara_django_material.partdeviceclass",
    "fields": {
      "name": "Voltmeter",
      "description": ""
    }
  },
  {
    "model": "lara_django_material.partdeviceclass",
    "fields": {
      "name": "Amperemeter",
      "description": ""
    }
  },
  {
    "model": "lara_django_material.partdeviceclass",
    "fields": {
      "name": "Multimeter",
      "description": ""
    }
  },
  {
    "model": "lara_django_material.partdeviceclass",
    "fields": {
      "name": "Oscilloscope",
      "description": ""
    }
  },
  {
    "model": "lara_django_material.partdeviceclass",
    "fields": {
      "name": "Function Generator",
      "description": ""
    }
  },
  {
    "model": "lara_django_material.partdeviceclass",
    "fields": {
      "name": "Power Supply",
      "description": ""
    }
  },
  {
    "model": "lara_django_material.partdeviceclass",
    "fields": {
      "name": "Signal Generator",
      "description": ""
    }
  },
  {
    "model": "lara_django_material.partdeviceclass",
    "fields": {
      "name": "Soldering Iron",
      "description": ""
    }
  },
  {
    "model": "lara_django_material.partdeviceclass",
    "fields": {
      "name": "Hot Plate",
      "description": ""
    }
  },
  {
    "model": "lara_django_material.partdeviceclass",
    "fields": {
      "name": "Magnetic Stirrer",
      "description": ""
    }
  },
  {
    "model": "lara_django_material.partdeviceclass",
    "fields": {
      "name": "Heating Mantle",
      "description": ""
    }
  },
  {
    "model": "lara_django_material.partdeviceclass",
    "fields": {
      "name": "Centrifuge",
      "description": ""
    }
  },
  {
    "model": "lara_django_material.partdeviceclass",
    "fields": {
      "name": "Shaker",
      "description": ""
    }
  },
  {
    "model": "lara_django_material.partdeviceclass",
    "fields": {
      "name": "PCR",
      "description": "Polymerase Chain Reaction"
    }
  },
  {
    "model": "lara_django_material.partdeviceclass",
    "fields": {
      "name": "Gel Electrophoresis",
      "description": ""
    }
  },
  {
    "model": "lara_django_material.partdeviceclass",
    "fields": {
      "name": "Pipette",
      "description": ""
    }
  },
  {
    "model": "lara_django_material.partdeviceclass",
    "fields": {
      "name": "Liquid Handling Robot",
      "description": ""
    }
  },
  {
    "model": "lara_django_material.partdeviceclass",
    "fields": {
      "name": "Incubator",
      "description": ""
    }
  }
]